<?xml version="1.0" encoding="UTF-8"?>
<svg width="20px" height="20px" viewBox="0 0 20 20" version="1.1" xmlns="http://www.w3.org/2000/svg" xmlns:xlink="http://www.w3.org/1999/xlink">
    <!-- Generator: Sketch 48.2 (47327) - http://www.bohemiancoding.com/sketch -->
    <title>achievements/special-20x20</title>
    <desc>Created with Sketch.</desc>
    <defs></defs>
    <g id="Achievements" stroke="none" stroke-width="1" fill="none" fill-rule="evenodd">
        <g id="achievements/special-20x20">
            <g id="Group-4">
                <rect id="Rectangle-7" x="0" y="0" width="20" height="20"></rect>
                <path d="M4.5,6 L14.1793824,6 C14.7857926,6 15.3594535,6.27513316 15.7390559,6.74803407 L17.3444765,8.74803407 C17.9315785,9.47943376 17.9315785,10.5205662 17.3444765,11.2519659 L15.7390559,13.2519659 C15.3594535,13.7248668 14.7857926,14 14.1793824,14 L4.5,14 C3.3954305,14 2.5,13.1045695 2.5,12 L2.5,8 C2.5,6.8954305 3.3954305,6 4.5,6 Z" id="Rectangle-8" stroke="#D75042" stroke-width="2"></path>
                <circle id="Oval-8" fill="#D75042" cx="14" cy="10" r="1"></circle>
            </g>
        </g>
    </g>
</svg>